{
  "code": 200,
  "status": "OK",
  "data": {
    "root": "حمد",
    "root_info": {
      "meaning": "حمد",
      "total_occurrences": 68,
      "surahs_count": 44
    },
    "derivatives": [
      {
        "word_id": 5,
        "location": "1:2:1",
        "text": "ٱلۡحَمۡدُ",
        "surah": {
          "id": 1,
          "name": "سورة الفاتحة",
          "english_name": "Al-Faatiha"
        },
        "ayah_number": 2,
        "position": 1,
        "ayah_text": "الحمد لله رب العالمين"
      },
      {
        "word_id": 471,
        "location": "2:30:20",
        "text": "بِحَمۡدِكَ",
        "surah": {
          "id": 2,
          "name": "سورة البقرة",
          "english_name": "Al-Baqara"
        },
        "ayah_number": 30,
        "position": 20,
        "ayah_text": "وإذ قال ربك للملائكة إني جاعل في الأرض خليفة ۖ قالوا أتجعل فيها من يفسد فيها ويسفك الدماء ونحن نسبح بحمدك ونقدس لك ۖ قال إني أعلم ما لا تعلمون"
      },
      {
        "word_id": 5608,
        "location": "2:267:29",
        "text": "حَمِيدٌ",
        "surah": {
          "id": 2,
          "name": "سورة البقرة",
          "english_name": "Al-Baqara"
        },
        "ayah_number": 267,
        "position": 29,
        "ayah_text": "يا أيها الذين آمنوا أنفقوا من طيبات ما كسبتم ومما أخرجنا لكم من الأرض ۖ ولا تيمموا الخبيث منه تنفقون ولستم بآخذيه إلا أن تغمضوا فيه ۚ واعلموا أن الله غني حميد"
      },
      {
        "word_id": 8498,
        "location": "3:144:2",
        "text": "مُحَمَّدٌ",
        "surah": {
          "id": 3,
          "name": "سورة آل عمران",
          "english_name": "Aal-i-Imraan"
        },
        "ayah_number": 144,
        "position": 2,
        "ayah_text": "وما محمد إلا رسول قد خلت من قبله الرسل ۚ أفإن مات أو قتل انقلبتم على أعقابكم ۚ ومن ينقلب على عقبيه فلن يضر الله شيئا ۗ وسيجزي الله الشاكرين"
      },
      {
        "word_id": 9411,
        "location": "3:188:9",
        "text": "يُحۡمَدُواْ",
        "surah": {
          "id": 3,
          "name": "سورة آل عمران",
          "english_name": "Aal-i-Imraan"
        },
        "ayah_number": 188,
        "position": 9,
        "ayah_text": "لا تحسبن الذين يفرحون بما أتوا ويحبون أن يحمدوا بما لم يفعلوا فلا تحسبنهم بمفازة من العذاب ۖ ولهم عذاب أليم"
      },
      {
        "word_id": 12505,
        "location": "4:131:32",
        "text": "حَمِيدٗا",
        "surah": {
          "id": 4,
          "name": "سورة النساء",
          "english_name": "An-Nisaa"
        },
        "ayah_number": 131,
        "position": 32,
        "ayah_text": "ولله ما في السماوات وما في الأرض ۗ ولقد وصينا الذين أوتوا الكتاب من قبلكم وإياكم أن اتقوا الله ۚ وإن تكفروا فإن لله ما في السماوات وما في الأرض ۚ وكان الله غنيا حميدا"
      },
      {
        "word_id": 16178,
        "location": "6:1:1",
        "text": "ٱلۡحَمۡدُ",
        "surah": {
          "id": 6,
          "name": "سورة الأنعام",
          "english_name": "Al-An'aam"
        },
        "ayah_number": 1,
        "position": 1,
        "ayah_text": "الحمد لله الذي خلق السماوات والأرض وجعل الظلمات والنور ۖ ثم الذين كفروا بربهم يعدلون"
      },
      {
        "word_id": 16882,
        "location": "6:45:6",
        "text": "وَٱلۡحَمۡدُ",
        "surah": {
          "id": 6,
          "name": "سورة الأنعام",
          "english_name": "Al-An'aam"
        },
        "ayah_number": 45,
        "position": 6,
        "ayah_text": "فقطع دابر القوم الذين ظلموا ۚ والحمد لله رب العالمين"
      },
      {
        "word_id": 19878,
        "location": "7:43:12",
        "text": "ٱلۡحَمۡدُ",
        "surah": {
          "id": 7,
          "name": "سورة الأعراف",
          "english_name": "Al-A'raaf"
        },
        "ayah_number": 43,
        "position": 12,
        "ayah_text": "ونزعنا ما في صدورهم من غل تجري من تحتهم الأنهار ۖ وقالوا الحمد لله الذي هدانا لهذا وما كنا لنهتدي لولا أن هدانا الله ۖ لقد جاءت رسل ربنا بالحق ۖ ونودوا أن تلكم الجنة أورثتموها بما كنتم تعملون"
      },
      {
        "word_id": 25918,
        "location": "9:112:3",
        "text": "ٱلۡحَٰمِدُونَ",
        "surah": {
          "id": 9,
          "name": "سورة التوبة",
          "english_name": "At-Tawba"
        },
        "ayah_number": 112,
        "position": 3,
        "ayah_text": "التائبون العابدون الحامدون السائحون الراكعون الساجدون الآمرون بالمعروف والناهون عن المنكر والحافظون لحدود الله ۗ وبشر المؤمنين"
      },
      {
        "word_id": 26450,
        "location": "10:10:11",
        "text": "ٱلۡحَمۡدُ",
        "surah": {
          "id": 10,
          "name": "سورة يونس",
          "english_name": "Yunus"
        },
        "ayah_number": 10,
        "position": 11,
        "ayah_text": "دعواهم فيها سبحانك اللهم وتحيتهم فيها سلام ۚ وآخر دعواهم أن الحمد لله رب العالمين"
      },
      {
        "word_id": 29314,
        "location": "11:73:13",
        "text": "حَمِيدٞ",
        "surah": {
          "id": 11,
          "name": "سورة هود",
          "english_name": "Hud"
        },
        "ayah_number": 73,
        "position": 13,
        "ayah_text": "قالوا أتعجبين من أمر الله ۖ رحمت الله وبركاته عليكم أهل البيت ۚ إنه حميد مجيد"
      },
      {
        "word_id": 32038,
        "location": "13:13:3",
        "text": "بِحَمۡدِهِۦ",
        "surah": {
          "id": 13,
          "name": "سورة الرعد",
          "english_name": "Ar-Ra'd"
        },
        "ayah_number": 13,
        "position": 3,
        "ayah_text": "ويسبح الرعد بحمده والملائكة من خيفته ويرسل الصواعق فيصيب بها من يشاء وهم يجادلون في الله وهو شديد المحال"
      },
      {
        "word_id": 32674,
        "location": "14:1:16",
        "text": "ٱلۡحَمِيدِ",
        "surah": {
          "id": 14,
          "name": "سورة ابراهيم",
          "english_name": "Ibrahim"
        },
        "ayah_number": 1,
        "position": 16,
        "ayah_text": "الر ۚ كتاب أنزلناه إليك لتخرج الناس من الظلمات إلى النور بإذن ربهم إلى صراط العزيز الحميد"
      },
      {
        "word_id": 32794,
        "location": "14:8:13",
        "text": "حَمِيدٌ",
        "surah": {
          "id": 14,
          "name": "سورة ابراهيم",
          "english_name": "Ibrahim"
        },
        "ayah_number": 8,
        "position": 13,
        "ayah_text": "وقال موسى إن تكفروا أنتم ومن في الأرض جميعا فإن الله لغني حميد"
      },
      {
        "word_id": 33329,
        "location": "14:39:1",
        "text": "ٱلۡحَمۡدُ",
        "surah": {
          "id": 14,
          "name": "سورة ابراهيم",
          "english_name": "Ibrahim"
        },
        "ayah_number": 39,
        "position": 1,
        "ayah_text": "الحمد لله الذي وهب لي على الكبر إسماعيل وإسحاق ۚ إن ربي لسميع الدعاء"
      },
      {
        "word_id": 34134,
        "location": "15:98:2",
        "text": "بِحَمۡدِ",
        "surah": {
          "id": 15,
          "name": "سورة الحجر",
          "english_name": "Al-Hijr"
        },
        "ayah_number": 98,
        "position": 2,
        "ayah_text": "فسبح بحمد ربك وكن من الساجدين"
      },
      {
        "word_id": 35170,
        "location": "16:75:22",
        "text": "ٱلۡحَمۡدُ",
        "surah": {
          "id": 16,
          "name": "سورة النحل",
          "english_name": "An-Nahl"
        },
        "ayah_number": 75,
        "position": 22,
        "ayah_text": "۞ ضرب الله مثلا عبدا مملوكا لا يقدر على شيء ومن رزقناه منا رزقا حسنا فهو ينفق منه سرا وجهرا ۖ هل يستوون ۚ الحمد لله ۚ بل أكثرهم لا يعلمون"
      },
      {
        "word_id": 36573,
        "location": "17:44:13",
        "text": "بِحَمۡدِهِۦ",
        "surah": {
          "id": 17,
          "name": "سورة الإسراء",
          "english_name": "Al-Israa"
        },
        "ayah_number": 44,
        "position": 13,
        "ayah_text": "تسبح له السماوات السبع والأرض ومن فيهن ۚ وإن من شيء إلا يسبح بحمده ولكن لا تفقهون تسبيحهم ۗ إنه كان حليما غفورا"
      },
      {
        "word_id": 36683,
        "location": "17:52:4",
        "text": "بِحَمۡدِهِۦ",
        "surah": {
          "id": 17,
          "name": "سورة الإسراء",
          "english_name": "Al-Israa"
        },
        "ayah_number": 52,
        "position": 4,
        "ayah_text": "يوم يدعوكم فتستجيبون بحمده وتظنون إن لبثتم إلا قليلا"
      },
      {
        "word_id": 37090,
        "location": "17:79:12",
        "text": "مَّحۡمُودٗا",
        "surah": {
          "id": 17,
          "name": "سورة الإسراء",
          "english_name": "Al-Israa"
        },
        "ayah_number": 79,
        "position": 12,
        "ayah_text": "ومن الليل فتهجد به نافلة لك عسى أن يبعثك ربك مقاما محمودا"
      },
      {
        "word_id": 37524,
        "location": "17:111:2",
        "text": "ٱلۡحَمۡدُ",
        "surah": {
          "id": 17,
          "name": "سورة الإسراء",
          "english_name": "Al-Israa"
        },
        "ayah_number": 111,
        "position": 2,
        "ayah_text": "وقل الحمد لله الذي لم يتخذ ولدا ولم يكن له شريك في الملك ولم يكن له ولي من الذل ۖ وكبره تكبيرا"
      },
      {
        "word_id": 37544,
        "location": "18:1:1",
        "text": "ٱلۡحَمۡدُ",
        "surah": {
          "id": 18,
          "name": "سورة الكهف",
          "english_name": "Al-Kahf"
        },
        "ayah_number": 1,
        "position": 1,
        "ayah_text": "الحمد لله الذي أنزل على عبده الكتاب ولم يجعل له عوجا ۜ"
      },
      {
        "word_id": 41331,
        "location": "20:130:6",
        "text": "بِحَمۡدِ",
        "surah": {
          "id": 20,
          "name": "سورة طه",
          "english_name": "Taa-Haa"
        },
        "ayah_number": 130,
        "position": 6,
        "ayah_text": "فاصبر على ما يقولون وسبح بحمد ربك قبل طلوع الشمس وقبل غروبها ۖ ومن آناء الليل فسبح وأطراف النهار لعلك ترضى"
      },
      {
        "word_id": 42998,
        "location": "22:24:9",
        "text": "ٱلۡحَمِيدِ",
        "surah": {
          "id": 22,
          "name": "سورة الحج",
          "english_name": "Al-Hajj"
        },
        "ayah_number": 24,
        "position": 9,
        "ayah_text": "وهدوا إلى الطيب من القول وهدوا إلى صراط الحميد"
      },
      {
        "word_id": 43613,
        "location": "22:64:12",
        "text": "ٱلۡحَمِيدُ",
        "surah": {
          "id": 22,
          "name": "سورة الحج",
          "english_name": "Al-Hajj"
        },
        "ayah_number": 64,
        "position": 12,
        "ayah_text": "له ما في السماوات وما في الأرض ۗ وإن الله لهو الغني الحميد"
      },
      {
        "word_id": 44124,
        "location": "23:28:9",
        "text": "ٱلۡحَمۡدُ",
        "surah": {
          "id": 23,
          "name": "سورة المؤمنون",
          "english_name": "Al-Muminoon"
        },
        "ayah_number": 28,
        "position": 9,
        "ayah_text": "فإذا استويت أنت ومن معك على الفلك فقل الحمد لله الذي نجانا من القوم الظالمين"
      },
      {
        "word_id": 46905,
        "location": "25:58:8",
        "text": "بِحَمۡدِهِۦۚ",
        "surah": {
          "id": 25,
          "name": "سورة الفرقان",
          "english_name": "Al-Furqaan"
        },
        "ayah_number": 58,
        "position": 8,
        "ayah_text": "وتوكل على الحي الذي لا يموت وسبح بحمده ۚ وكفى به بذنوب عباده خبيرا"
      },
      {
        "word_id": 48594,
        "location": "27:15:7",
        "text": "ٱلۡحَمۡدُ",
        "surah": {
          "id": 27,
          "name": "سورة النمل",
          "english_name": "An-Naml"
        },
        "ayah_number": 15,
        "position": 7,
        "ayah_text": "ولقد آتينا داوود وسليمان علما ۖ وقالا الحمد لله الذي فضلنا على كثير من عباده المؤمنين"
      },
      {
        "word_id": 49143,
        "location": "27:59:2",
        "text": "ٱلۡحَمۡدُ",
        "surah": {
          "id": 27,
          "name": "سورة النمل",
          "english_name": "An-Naml"
        },
        "ayah_number": 59,
        "position": 2,
        "ayah_text": "قل الحمد لله وسلام على عباده الذين اصطفى ۗ آلله خير أما يشركون"
      },
      {
        "word_id": 49580,
        "location": "27:93:2",
        "text": "ٱلۡحَمۡدُ",
        "surah": {
          "id": 27,
          "name": "سورة النمل",
          "english_name": "An-Naml"
        },
        "ayah_number": 93,
        "position": 2,
        "ayah_text": "وقل الحمد لله سيريكم آياته فتعرفونها ۚ وما ربك بغافل عما تعملون"
      },
      {
        "word_id": 50671,
        "location": "28:70:8",
        "text": "ٱلۡحَمۡدُ",
        "surah": {
          "id": 28,
          "name": "سورة القصص",
          "english_name": "Al-Qasas"
        },
        "ayah_number": 70,
        "position": 8,
        "ayah_text": "وهو الله لا إله إلا هو ۖ له الحمد في الأولى والآخرة ۖ وله الحكم وإليه ترجعون"
      },
      {
        "word_id": 51912,
        "location": "29:63:17",
        "text": "ٱلۡحَمۡدُ",
        "surah": {
          "id": 29,
          "name": "سورة العنكبوت",
          "english_name": "Al-Ankaboot"
        },
        "ayah_number": 63,
        "position": 17,
        "ayah_text": "ولئن سألتهم من نزل من السماء ماء فأحيا به الأرض من بعد موتها ليقولن الله ۚ قل الحمد لله ۚ بل أكثرهم لا يعقلون"
      },
      {
        "word_id": 52169,
        "location": "30:18:2",
        "text": "ٱلۡحَمۡدُ",
        "surah": {
          "id": 30,
          "name": "سورة الروم",
          "english_name": "Ar-Room"
        },
        "ayah_number": 18,
        "position": 2,
        "ayah_text": "وله الحمد في السماوات والأرض وعشيا وحين تظهرون"
      },
      {
        "word_id": 52946,
        "location": "31:12:18",
        "text": "حَمِيدٞ",
        "surah": {
          "id": 31,
          "name": "سورة لقمان",
          "english_name": "Luqman"
        },
        "ayah_number": 12,
        "position": 18,
        "ayah_text": "ولقد آتينا لقمان الحكمة أن اشكر لله ۚ ومن يشكر فإنما يشكر لنفسه ۖ ومن كفر فإن الله غني حميد"
      },
      {
        "word_id": 53172,
        "location": "31:25:10",
        "text": "ٱلۡحَمۡدُ",
        "surah": {
          "id": 31,
          "name": "سورة لقمان",
          "english_name": "Luqman"
        },
        "ayah_number": 25,
        "position": 10,
        "ayah_text": "ولئن سألتهم من خلق السماوات والأرض ليقولن الله ۚ قل الحمد لله ۚ بل أكثرهم لا يعلمون"
      },
      {
        "word_id": 53187,
        "location": "31:26:10",
        "text": "ٱلۡحَمِيدُ",
        "surah": {
          "id": 31,
          "name": "سورة لقمان",
          "english_name": "Luqman"
        },
        "ayah_number": 26,
        "position": 10,
        "ayah_text": "لله ما في السماوات والأرض ۚ إن الله هو الغني الحميد"
      },
      {
        "word_id": 53546,
        "location": "32:15:11",
        "text": "بِحَمۡدِ",
        "surah": {
          "id": 32,
          "name": "سورة السجدة",
          "english_name": "As-Sajda"
        },
        "ayah_number": 15,
        "position": 11,
        "ayah_text": "إنما يؤمن بآياتنا الذين إذا ذكروا بها خروا سجدا وسبحوا بحمد ربهم وهم لا يستكبرون ۩"
      },
      {
        "word_id": 54461,
        "location": "33:40:3",
        "text": "مُحَمَّدٌ",
        "surah": {
          "id": 33,
          "name": "سورة الأحزاب",
          "english_name": "Al-Ahzaab"
        },
        "ayah_number": 40,
        "position": 3,
        "ayah_text": "ما كان محمد أبا أحد من رجالكم ولكن رسول الله وخاتم النبيين ۗ وكان الله بكل شيء عليما"
      },
      {
        "word_id": 55018,
        "location": "34:1:1",
        "text": "ٱلۡحَمۡدُ",
        "surah": {
          "id": 34,
          "name": "سورة سَبَأ",
          "english_name": "Saba"
        },
        "ayah_number": 1,
        "position": 1,
        "ayah_text": "الحمد لله الذي له ما في السماوات وما في الأرض وله الحمد في الآخرة ۚ وهو الحكيم الخبير"
      },
      {
        "word_id": 55029,
        "location": "34:1:12",
        "text": "ٱلۡحَمۡدُ",
        "surah": {
          "id": 34,
          "name": "سورة سَبَأ",
          "english_name": "Saba"
        },
        "ayah_number": 1,
        "position": 12,
        "ayah_text": "الحمد لله الذي له ما في السماوات وما في الأرض وله الحمد في الآخرة ۚ وهو الحكيم الخبير"
      },
      {
        "word_id": 55121,
        "location": "34:6:16",
        "text": "ٱلۡحَمِيدِ",
        "surah": {
          "id": 34,
          "name": "سورة سَبَأ",
          "english_name": "Saba"
        },
        "ayah_number": 6,
        "position": 16,
        "ayah_text": "ويرى الذين أوتوا العلم الذي أنزل إليك من ربك هو الحق ويهدي إلى صراط العزيز الحميد"
      },
      {
        "word_id": 55901,
        "location": "35:1:1",
        "text": "ٱلۡحَمۡدُ",
        "surah": {
          "id": 35,
          "name": "سورة فاطر",
          "english_name": "Faatir"
        },
        "ayah_number": 1,
        "position": 1,
        "ayah_text": "الحمد لله فاطر السماوات والأرض جاعل الملائكة رسلا أولي أجنحة مثنى وثلاث ورباع ۚ يزيد في الخلق ما يشاء ۚ إن الله على كل شيء قدير"
      },
      {
        "word_id": 56199,
        "location": "35:15:10",
        "text": "ٱلۡحَمِيدُ",
        "surah": {
          "id": 35,
          "name": "سورة فاطر",
          "english_name": "Faatir"
        },
        "ayah_number": 15,
        "position": 10,
        "ayah_text": "۞ يا أيها الناس أنتم الفقراء إلى الله ۖ والله هو الغني الحميد"
      },
      {
        "word_id": 56423,
        "location": "35:34:2",
        "text": "ٱلۡحَمۡدُ",
        "surah": {
          "id": 35,
          "name": "سورة فاطر",
          "english_name": "Faatir"
        },
        "ayah_number": 34,
        "position": 2,
        "ayah_text": "وقالوا الحمد لله الذي أذهب عنا الحزن ۖ إن ربنا لغفور شكور"
      },
      {
        "word_id": 58257,
        "location": "37:182:1",
        "text": "وَٱلۡحَمۡدُ",
        "surah": {
          "id": 37,
          "name": "سورة الصافات",
          "english_name": "As-Saaffaat"
        },
        "ayah_number": 182,
        "position": 1,
        "ayah_text": "والحمد لله رب العالمين"
      },
      {
        "word_id": 59498,
        "location": "39:29:14",
        "text": "ٱلۡحَمۡدُ",
        "surah": {
          "id": 39,
          "name": "سورة الزمر",
          "english_name": "Az-Zumar"
        },
        "ayah_number": 29,
        "position": 14,
        "ayah_text": "ضرب الله مثلا رجلا فيه شركاء متشاكسون ورجلا سلما لرجل هل يستويان مثلا ۚ الحمد لله ۚ بل أكثرهم لا يعلمون"
      },
      {
        "word_id": 60134,
        "location": "39:74:2",
        "text": "ٱلۡحَمۡدُ",
        "surah": {
          "id": 39,
          "name": "سورة الزمر",
          "english_name": "Az-Zumar"
        },
        "ayah_number": 74,
        "position": 2,
        "ayah_text": "وقالوا الحمد لله الذي صدقنا وعده وأورثنا الأرض نتبوأ من الجنة حيث نشاء ۖ فنعم أجر العاملين"
      },
      {
        "word_id": 60156,
        "location": "39:75:8",
        "text": "بِحَمۡدِ",
        "surah": {
          "id": 39,
          "name": "سورة الزمر",
          "english_name": "Az-Zumar"
        },
        "ayah_number": 75,
        "position": 8,
        "ayah_text": "وترى الملائكة حافين من حول العرش يسبحون بحمد ربهم ۖ وقضي بينهم بالحق وقيل الحمد لله رب العالمين"
      },
      {
        "word_id": 60162,
        "location": "39:75:14",
        "text": "ٱلۡحَمۡدُ",
        "surah": {
          "id": 39,
          "name": "سورة الزمر",
          "english_name": "Az-Zumar"
        },
        "ayah_number": 75,
        "position": 14,
        "ayah_text": "وترى الملائكة حافين من حول العرش يسبحون بحمد ربهم ۖ وقضي بينهم بالحق وقيل الحمد لله رب العالمين"
      }
    ],
    "pagination": {
      "total": 68,
      "limit": 50,
      "offset": 0,
      "has_more": true
    }
  }
}